<svg
        width="100"
        height="100"
        viewBox="0 0 24 24"
        fill="none"
        xmlns="http://www.w3.org/2000/svg"
>
    <path
            d="M21.1 15.3C20.4 15.5 19.6 15.6 18.8 15.6C12.7 15.6 7.9 10.8 7.9 4.7C7.9 3.9 8 3.1 8.2 2.4C5.1 3.8 3 7.1 3 10.8C3 16.1 7.4 20.5 12.7 20.5C16.4 20.5 19.7 18.4 21.1 15.3Z"
            fill="#FFD700"
    />
    <circle cx="17" cy="5" r="1.5" fill="#FFD700" />
    <circle cx="13" cy="7" r="1" fill="#FFD700" />
    <circle cx="19" cy="8" r="1" fill="#FFD700" />
    <circle cx="15" cy="3" r="1" fill="#FFD700" />
</svg>